handshakeTXRX/vcd_myTX-RX.vcd
$date
     Nov 06, 2024       11:08:25
$end

$version
 SystemC 2.3.4-Accellera --- Dec  4 2023 14:09:46
$end

$timescale
     1 ps
$end

$scope module SystemC $end
$var wire    1  aaaaa  i_clock       $end
$var wire    1  aaaab  i_reset       $end
$var wire    1  aaaac  i_packetReady       $end
$var wire    1  aaaad  i_ready_to_receive       $end
$var wire    8  aaaae  i_fifo_dataOut [7:0]  $end
$var wire    1  aaaaf  i_fifo_empty       $end
$var wire    1  aaaag  i_fifo_full       $end
$var wire    1  aaaah  o_fifo_pop       $end
$var wire    1  aaaai  o_fifo_push       $end
$var wire   32  aaaaj  o_nPackets_received [31:0]  $end
$var wire    1  aaaak  o_packet_received       $end
$var wire   32  aaaal  o_nPackets_sent [31:0]  $end
$var wire    1  aaaam  o_packet_sent       $end
$var wire   32  aaaan  TX_State [31:0]  $end
$var wire    9  aaaao  TX_Count [8:0]  $end
$var wire   32  aaaap  TX_nPackets [31:0]  $end
$var wire   32  aaaaq  RX_State [31:0]  $end
$var wire    9  aaaar  RX_Count [8:0]  $end
$var wire   32  aaaas  RX_nPackets [31:0]  $end
$var wire    1  aaaat  OnOff_fromRX_toTX       $end
$var wire    1  aaaau  Req_fromTX_toRX       $end
$var wire    1  aaaav  SoP_fromTX_toRX       $end
$upscope $end
$enddefinitions  $end

$comment
All initial values are dumped below at time 1e-08 sec = 10000 timescale units.
$end

$dumpvars
0aaaaa
0aaaab
0aaaac
0aaaad
b0 aaaae
0aaaaf
0aaaag
0aaaah
0aaaai
b0 aaaaj
0aaaak
b0 aaaal
0aaaam
b0 aaaan
b0 aaaao
b0 aaaap
b0 aaaaq
b0 aaaar
b0 aaaas
0aaaat
0aaaau
0aaaav
$end

#20000
1aaaaa

#30000
0aaaaa

#40000
1aaaaa

#50000
0aaaaa
1aaaab
1aaaaf

#60000
1aaaaa

#70000
0aaaaa

#80000
1aaaaa

#90000
0aaaaa
0aaaab
b100 aaaae
0aaaaf

#100000
1aaaaa

#110000
0aaaaa

#120000
1aaaaa

#130000
0aaaaa
1aaaac

#140000
1aaaaa
b1 aaaan

#150000
0aaaaa

#160000
1aaaaa
b110 aaaao

#170000
0aaaaa
0aaaac
1aaaaf

#180000
1aaaaa

#190000
0aaaaa

#200000
1aaaaa

#210000
0aaaaa

#220000
1aaaaa

#230000
0aaaaa

#240000
1aaaaa

#250000
0aaaaa

#260000
1aaaaa

#270000
0aaaaa

#280000
1aaaaa

#290000
0aaaaa

#300000
1aaaaa

#310000
0aaaaa

#320000
1aaaaa

#330000
0aaaaa

#340000
1aaaaa

#350000
0aaaaa

#360000
1aaaaa

#370000
0aaaaa
1aaaad
0aaaaf

#380000
1aaaaa
b1 aaaaq

#390000
0aaaaa

#400000
1aaaaa
1aaaat

#410000
0aaaaa
0aaaad

#420000
1aaaaa
b10 aaaan

#430000
0aaaaa

#440000
1aaaaa
b101 aaaao
b1 aaaap
1aaaau
1aaaav

#450000
0aaaaa

#460000
1aaaaa
b10 aaaaq

#470000
0aaaaa

#480000
1aaaaa
1aaaai
b11 aaaaq
b101 aaaar
b1 aaaas
0aaaat

#490000
0aaaaa

#500000
1aaaaa
0aaaai
b11 aaaan
b100 aaaaq
1aaaat

#510000
0aaaaa

#520000
1aaaaa
1aaaah
1aaaai
b100 aaaan
b11 aaaaq
b100 aaaar
0aaaat
0aaaau
0aaaav

#530000
0aaaaa

#540000
1aaaaa
0aaaah
0aaaai
b11 aaaan
b100 aaaao
1aaaat
1aaaau

#550000
0aaaaa

#560000
1aaaaa
1aaaah
b100 aaaan
b100 aaaaq
0aaaau

#570000
0aaaaa

#580000
1aaaaa
0aaaah
1aaaai
b11 aaaao
b11 aaaaq
b11 aaaar
0aaaat
1aaaau

#590000
0aaaaa

#600000
1aaaaa
0aaaai
b11 aaaan
b100 aaaaq
1aaaat

#610000
0aaaaa

#620000
1aaaaa
1aaaah
1aaaai
b100 aaaan
b11 aaaaq
b10 aaaar
0aaaat
0aaaau

#630000
0aaaaa

#640000
1aaaaa
0aaaah
0aaaai
b11 aaaan
b10 aaaao
1aaaat
1aaaau

#650000
0aaaaa

#660000
1aaaaa
1aaaah
b100 aaaan
b100 aaaaq
0aaaau

#670000
0aaaaa

#680000
1aaaaa
0aaaah
1aaaai
b1 aaaao
b11 aaaaq
b1 aaaar
0aaaat
1aaaau

#690000
0aaaaa

#700000
1aaaaa
0aaaai
b11 aaaan
b100 aaaaq
1aaaat

#710000
0aaaaa

#720000
1aaaaa
1aaaah
1aaaai
b100 aaaan
b11 aaaaq
b0 aaaar
0aaaat
0aaaau

#730000
0aaaaa

#740000
1aaaaa
0aaaah
0aaaai
b11 aaaan
b0 aaaao
b1 aaaaq
1aaaat
1aaaau

#750000
0aaaaa

#760000
1aaaaa
1aaaah
b0 aaaan
0aaaau

#770000
0aaaaa

#780000
1aaaaa
0aaaah

