handshakeTXRX/vcd_myTX-RX.vcd
$date
     Nov 06, 2024       12:20:34
$end

$version
 SystemC 2.3.4-Accellera --- Dec  4 2023 14:09:46
$end

$timescale
     1 ps
$end

$scope module SystemC $end
$var wire    1  aaaaa  i_clock       $end
$var wire    1  aaaab  i_reset       $end
$var wire    1  aaaac  i_packetReady       $end
$var wire    1  aaaad  i_ready_to_receive       $end
$var wire    8  aaaae  i_fifo_dataOut [7:0]  $end
$var wire    1  aaaaf  i_fifo_empty       $end
$var wire    1  aaaag  i_fifo_full       $end
$var wire    1  aaaah  o_fifo_pop       $end
$var wire    1  aaaai  o_fifo_push       $end
$var wire   32  aaaaj  o_nPackets_received [31:0]  $end
$var wire    1  aaaak  o_packet_received       $end
$var wire   32  aaaal  o_nPackets_sent [31:0]  $end
$var wire    1  aaaam  o_packet_sent       $end
$var wire   32  aaaan  TX_State [31:0]  $end
$var wire    9  aaaao  TX_Count [8:0]  $end
$var wire   32  aaaap  TX_nPackets [31:0]  $end
$var wire   32  aaaaq  RX_State [31:0]  $end
$var wire    9  aaaar  RX_Count [8:0]  $end
$var wire   32  aaaas  RX_nPackets [31:0]  $end
$var wire    1  aaaat  OnOff_fromRX_toTX       $end
$var wire    1  aaaau  Req_fromTX_toRX       $end
$var wire    1  aaaav  SoP_fromTX_toRX       $end
$upscope $end
$enddefinitions  $end

$comment
All initial values are dumped below at time 1e-08 sec = 10000 timescale units.
$end

$dumpvars
0aaaaa
0aaaab
0aaaac
0aaaad
b0 aaaae
0aaaaf
0aaaag
0aaaah
0aaaai
b0 aaaaj
0aaaak
b0 aaaal
0aaaam
b0 aaaan
b0 aaaao
b0 aaaap
b0 aaaaq
b0 aaaar
b0 aaaas
0aaaat
0aaaau
0aaaav
$end

#20000
1aaaaa

#30000
0aaaaa

#40000
1aaaaa

#50000
0aaaaa
1aaaab
1aaaaf

#60000
1aaaaa

#70000
0aaaaa

#80000
1aaaaa

#90000
0aaaaa
0aaaab
b100 aaaae
0aaaaf

#100000
1aaaaa

#110000
0aaaaa

#120000
1aaaaa

#130000
0aaaaa
1aaaac

#140000
1aaaaa
b1 aaaan

#150000
0aaaaa

#160000
1aaaaa
b110 aaaao

#170000
0aaaaa
0aaaac
1aaaaf

#180000
1aaaaa

#190000
0aaaaa

#200000
1aaaaa

#210000
0aaaaa

#220000
1aaaaa

#230000
0aaaaa

#240000
1aaaaa

#250000
0aaaaa

#260000
1aaaaa

#270000
0aaaaa

#280000
1aaaaa

#290000
0aaaaa

#300000
1aaaaa

#310000
0aaaaa

#320000
1aaaaa

#330000
0aaaaa

#340000
1aaaaa

#350000
0aaaaa

#360000
1aaaaa

#370000
0aaaaa
1aaaad
0aaaaf

#380000
1aaaaa
b1 aaaaq

#390000
0aaaaa

#400000
1aaaaa
1aaaat

#410000
0aaaaa
0aaaad

#420000
1aaaaa
b10 aaaan

#430000
0aaaaa

#440000
1aaaaa
b101 aaaao
b1 aaaap
1aaaau
1aaaav

#450000
0aaaaa

#460000
1aaaaa
b10 aaaaq

#470000
0aaaaa

#480000
1aaaaa
1aaaai
b11 aaaaq
b101 aaaar
b1 aaaas
0aaaat

#490000
0aaaaa

#500000
1aaaaa
0aaaai
b11 aaaan
b100 aaaaq
1aaaat

#510000
0aaaaa

#520000
1aaaaa
1aaaah
1aaaai
b100 aaaan
b11 aaaaq
b100 aaaar
0aaaat
0aaaau
0aaaav

#530000
0aaaaa
b101 aaaae

#540000
1aaaaa
0aaaah
0aaaai
b11 aaaan
b100 aaaao
1aaaat
1aaaau

#550000
0aaaaa

#560000
1aaaaa
1aaaah
b100 aaaan
b100 aaaaq
0aaaau

#570000
0aaaaa
b110 aaaae

#580000
1aaaaa
0aaaah
1aaaai
b11 aaaao
b11 aaaaq
b11 aaaar
0aaaat
1aaaau

#590000
0aaaaa

#600000
1aaaaa
0aaaai
b11 aaaan
b100 aaaaq
1aaaat

#610000
0aaaaa

#620000
1aaaaa
1aaaah
1aaaai
b100 aaaan
b11 aaaaq
b10 aaaar
0aaaat
0aaaau

#630000
0aaaaa
b111 aaaae

#640000
1aaaaa
0aaaah
0aaaai
b11 aaaan
b10 aaaao
1aaaat
1aaaau

#650000
0aaaaa

#660000
1aaaaa
1aaaah
b100 aaaan
b100 aaaaq
0aaaau

#670000
0aaaaa
b1000 aaaae

#680000
1aaaaa
0aaaah
1aaaai
b1 aaaao
b11 aaaaq
b1 aaaar
0aaaat
1aaaau

#690000
0aaaaa

#700000
1aaaaa
0aaaai
b11 aaaan
b100 aaaaq
1aaaat

#710000
0aaaaa

#720000
1aaaaa
1aaaah
1aaaai
b100 aaaan
b11 aaaaq
b0 aaaar
0aaaat
0aaaau

#730000
0aaaaa
b1001 aaaae

#740000
1aaaaa
0aaaah
0aaaai
b11 aaaan
b0 aaaao
b1 aaaaq
1aaaat
1aaaau

#750000
0aaaaa

#760000
1aaaaa
1aaaah
b0 aaaan
0aaaau

#770000
0aaaaa
b1010 aaaae

#780000
1aaaaa
0aaaah

#790000
0aaaaa

#800000
1aaaaa

#810000
0aaaaa
1aaaac

#820000
1aaaaa
b1 aaaan

#830000
0aaaaa

#840000
1aaaaa
b10 aaaan
b1100 aaaao

#850000
0aaaaa
0aaaac

#860000
1aaaaa
b1011 aaaao
b10 aaaap
1aaaau
1aaaav

#870000
0aaaaa

#880000
1aaaaa
b10 aaaaq

#890000
0aaaaa

#900000
1aaaaa
1aaaai
b11 aaaaq
b1011 aaaar
b10 aaaas
0aaaat

#910000
0aaaaa

#920000
1aaaaa
0aaaai
b11 aaaan
b100 aaaaq
1aaaat

#930000
0aaaaa

#940000
1aaaaa
1aaaah
1aaaai
b100 aaaan
b11 aaaaq
b1010 aaaar
0aaaat
0aaaau
0aaaav

#950000
0aaaaa

#960000
1aaaaa
0aaaah
0aaaai
b11 aaaan
b1010 aaaao
1aaaat
1aaaau

#970000
0aaaaa

#980000
1aaaaa
1aaaah
b100 aaaan
b100 aaaaq
0aaaau

#990000
0aaaaa

#1000000
1aaaaa
0aaaah
1aaaai
b1001 aaaao
b11 aaaaq
b1001 aaaar
0aaaat
1aaaau

#1010000
0aaaaa

#1020000
1aaaaa
0aaaai
b11 aaaan
b100 aaaaq
1aaaat

#1030000
0aaaaa

#1040000
1aaaaa
1aaaah
1aaaai
b100 aaaan
b11 aaaaq
b1000 aaaar
0aaaat
0aaaau

#1050000
0aaaaa
1aaaad

#1060000
1aaaaa
0aaaah
0aaaai
b11 aaaan
b1000 aaaao
1aaaat
1aaaau

#1070000
0aaaaa

#1080000
1aaaaa
1aaaah
b100 aaaan
b100 aaaaq
0aaaau

#1090000
0aaaaa
0aaaad

#1100000
1aaaaa
0aaaah
1aaaai
b111 aaaao
b11 aaaaq
b111 aaaar
0aaaat
1aaaau

#1110000
0aaaaa

#1120000
1aaaaa
0aaaai
b11 aaaan
b100 aaaaq
1aaaat

#1130000
0aaaaa

#1140000
1aaaaa
1aaaah
1aaaai
b100 aaaan
b11 aaaaq
b110 aaaar
0aaaat
0aaaau

#1150000
0aaaaa
b1011 aaaae

#1160000
1aaaaa
0aaaah
0aaaai
b11 aaaan
b110 aaaao
1aaaat
1aaaau

#1170000
0aaaaa

#1180000
1aaaaa
1aaaah
b100 aaaan
b100 aaaaq
0aaaau

#1190000
0aaaaa
b1100 aaaae

#1200000
1aaaaa
0aaaah
1aaaai
b101 aaaao
b11 aaaaq
b101 aaaar
0aaaat
1aaaau

#1210000
0aaaaa

#1220000
1aaaaa
0aaaai
b11 aaaan
b100 aaaaq
1aaaat

#1230000
0aaaaa

#1240000
1aaaaa
1aaaah
1aaaai
b100 aaaan
b11 aaaaq
b100 aaaar
0aaaat
0aaaau

#1250000
0aaaaa
b1101 aaaae

#1260000
1aaaaa
0aaaah
0aaaai
b11 aaaan
b100 aaaao
1aaaat
1aaaau

#1270000
0aaaaa

#1280000
1aaaaa
1aaaah
b100 aaaan
b100 aaaaq
0aaaau

#1290000
0aaaaa
b1110 aaaae

#1300000
1aaaaa
0aaaah
1aaaai
b11 aaaao
b11 aaaaq
b11 aaaar
0aaaat
1aaaau

#1310000
0aaaaa

#1320000
1aaaaa
0aaaai
b11 aaaan
b100 aaaaq
1aaaat

#1330000
0aaaaa

#1340000
1aaaaa
1aaaah
1aaaai
b100 aaaan
b11 aaaaq
b10 aaaar
0aaaat
0aaaau

#1350000
0aaaaa
b1111 aaaae

#1360000
1aaaaa
0aaaah
0aaaai
b11 aaaan
b10 aaaao
1aaaat
1aaaau

#1370000
0aaaaa

#1380000
1aaaaa
1aaaah
b100 aaaan
b100 aaaaq
0aaaau

#1390000
0aaaaa
b10000 aaaae

#1400000
1aaaaa
0aaaah
1aaaai
b1 aaaao
b11 aaaaq
b1 aaaar
0aaaat
1aaaau

#1410000
0aaaaa

#1420000
1aaaaa
0aaaai
b11 aaaan
b100 aaaaq
1aaaat

#1430000
0aaaaa

#1440000
1aaaaa
1aaaah
1aaaai
b100 aaaan
b11 aaaaq
b0 aaaar
0aaaat
0aaaau

#1450000
0aaaaa
b10001 aaaae

#1460000
1aaaaa
0aaaah
0aaaai
b11 aaaan
b0 aaaao
b1 aaaaq
1aaaat
1aaaau

#1470000
0aaaaa

#1480000
1aaaaa
1aaaah
b0 aaaan
0aaaau

#1490000
0aaaaa
1aaaac
b10010 aaaae

#1500000
1aaaaa
0aaaah
b1 aaaan

#1510000
0aaaaa

#1520000
1aaaaa
b10 aaaan
b10100 aaaao

#1530000
0aaaaa
0aaaac

#1540000
1aaaaa
b10011 aaaao
b11 aaaap
1aaaau
1aaaav

#1550000
0aaaaa

#1560000
1aaaaa
b10 aaaaq

#1570000
0aaaaa

#1580000
1aaaaa
1aaaai
b11 aaaaq
b10011 aaaar
b11 aaaas
0aaaat

#1590000
0aaaaa

#1600000
1aaaaa
0aaaai
b11 aaaan
b100 aaaaq
1aaaat

#1610000
0aaaaa

#1620000
1aaaaa
1aaaah
1aaaai
b100 aaaan
b11 aaaaq
b10010 aaaar
0aaaat
0aaaau
0aaaav

#1630000
0aaaaa

#1640000
1aaaaa
0aaaah
0aaaai
b11 aaaan
b10010 aaaao
1aaaat
1aaaau

#1650000
0aaaaa

#1660000
1aaaaa
1aaaah
b100 aaaan
b100 aaaaq
0aaaau

#1670000
0aaaaa

#1680000
1aaaaa
0aaaah
1aaaai
b10001 aaaao
b11 aaaaq
b10001 aaaar
0aaaat
1aaaau

#1690000
0aaaaa

#1700000
1aaaaa
0aaaai
b11 aaaan
b100 aaaaq
1aaaat

#1710000
0aaaaa

#1720000
1aaaaa
1aaaah
1aaaai
b100 aaaan
b11 aaaaq
b10000 aaaar
0aaaat
0aaaau

#1730000
0aaaaa
1aaaad

#1740000
1aaaaa
0aaaah
0aaaai
b11 aaaan
b10000 aaaao
1aaaat
1aaaau

#1750000
0aaaaa

#1760000
1aaaaa
1aaaah
b100 aaaan
b100 aaaaq
0aaaau

#1770000
0aaaaa
0aaaad

#1780000
1aaaaa
0aaaah
1aaaai
b1111 aaaao
b11 aaaaq
b1111 aaaar
0aaaat
1aaaau

#1790000
0aaaaa

#1800000
1aaaaa
0aaaai
b11 aaaan
b100 aaaaq
1aaaat

#1810000
0aaaaa

#1820000
1aaaaa
1aaaah
1aaaai
b100 aaaan
b11 aaaaq
b1110 aaaar
0aaaat
0aaaau

#1830000
0aaaaa
b10011 aaaae

#1840000
1aaaaa
0aaaah
0aaaai
b11 aaaan
b1110 aaaao
1aaaat
1aaaau

#1850000
0aaaaa

#1860000
1aaaaa
1aaaah
b100 aaaan
b100 aaaaq
0aaaau

#1870000
0aaaaa
b10100 aaaae

#1880000
1aaaaa
0aaaah
1aaaai
b1101 aaaao
b11 aaaaq
b1101 aaaar
0aaaat
1aaaau

#1890000
0aaaaa

#1900000
1aaaaa
0aaaai
b11 aaaan
b100 aaaaq
1aaaat

#1910000
0aaaaa

#1920000
1aaaaa
1aaaah
1aaaai
b100 aaaan
b11 aaaaq
b1100 aaaar
0aaaat
0aaaau

#1930000
0aaaaa
b10101 aaaae

#1940000
1aaaaa
0aaaah
0aaaai
b11 aaaan
b1100 aaaao
1aaaat
1aaaau

#1950000
0aaaaa

#1960000
1aaaaa
1aaaah
b100 aaaan
b100 aaaaq
0aaaau

#1970000
0aaaaa
b10110 aaaae

#1980000
1aaaaa
0aaaah
1aaaai
b1011 aaaao
b11 aaaaq
b1011 aaaar
0aaaat
1aaaau

#1990000
0aaaaa

#2000000
1aaaaa
0aaaai
b11 aaaan
b100 aaaaq
1aaaat

#2010000
0aaaaa

#2020000
1aaaaa
1aaaah
1aaaai
b100 aaaan
b11 aaaaq
b1010 aaaar
0aaaat
0aaaau

#2030000
0aaaaa
b10111 aaaae

#2040000
1aaaaa
0aaaah
0aaaai
b11 aaaan
b1010 aaaao
1aaaat
1aaaau

#2050000
0aaaaa

#2060000
1aaaaa
1aaaah
b100 aaaan
b100 aaaaq
0aaaau

#2070000
0aaaaa
b11000 aaaae

#2080000
1aaaaa
0aaaah
1aaaai
b1001 aaaao
b11 aaaaq
b1001 aaaar
0aaaat
1aaaau

#2090000
0aaaaa

#2100000
1aaaaa
0aaaai
b11 aaaan
b100 aaaaq
1aaaat

#2110000
0aaaaa

#2120000
1aaaaa
1aaaah
1aaaai
b100 aaaan
b11 aaaaq
b1000 aaaar
0aaaat
0aaaau

#2130000
0aaaaa
b11001 aaaae

#2140000
1aaaaa
0aaaah
0aaaai
b11 aaaan
b1000 aaaao
1aaaat
1aaaau

#2150000
0aaaaa

#2160000
1aaaaa
1aaaah
b100 aaaan
b100 aaaaq
0aaaau

#2170000
0aaaaa
b11010 aaaae

#2180000
1aaaaa
0aaaah
1aaaai
b111 aaaao
b11 aaaaq
b111 aaaar
0aaaat
1aaaau

#2190000
0aaaaa

#2200000
1aaaaa
0aaaai
b11 aaaan
b100 aaaaq
1aaaat

#2210000
0aaaaa

#2220000
1aaaaa
1aaaah
1aaaai
b100 aaaan
b11 aaaaq
b110 aaaar
0aaaat
0aaaau

#2230000
0aaaaa
b11011 aaaae

#2240000
1aaaaa
0aaaah
0aaaai
b11 aaaan
b110 aaaao
1aaaat
1aaaau

#2250000
0aaaaa

#2260000
1aaaaa
1aaaah
b100 aaaan
b100 aaaaq
0aaaau

#2270000
0aaaaa
b11100 aaaae

#2280000
1aaaaa
0aaaah
1aaaai
b101 aaaao
b11 aaaaq
b101 aaaar
0aaaat
1aaaau

#2290000
0aaaaa

#2300000
1aaaaa
0aaaai
b11 aaaan
b100 aaaaq
1aaaat

#2310000
0aaaaa

#2320000
1aaaaa
1aaaah
1aaaai
b100 aaaan
b11 aaaaq
b100 aaaar
0aaaat
0aaaau

#2330000
0aaaaa
b11101 aaaae

#2340000
1aaaaa
0aaaah
0aaaai
b11 aaaan
b100 aaaao
1aaaat
1aaaau

#2350000
0aaaaa

#2360000
1aaaaa
1aaaah
b100 aaaan
b100 aaaaq
0aaaau

#2370000
0aaaaa
b11110 aaaae

#2380000
1aaaaa
0aaaah
1aaaai
b11 aaaao
b11 aaaaq
b11 aaaar
0aaaat
1aaaau

#2390000
0aaaaa

#2400000
1aaaaa
0aaaai
b11 aaaan
b100 aaaaq
1aaaat

#2410000
0aaaaa

#2420000
1aaaaa
1aaaah
1aaaai
b100 aaaan
b11 aaaaq
b10 aaaar
0aaaat
0aaaau

#2430000
0aaaaa
b11111 aaaae

#2440000
1aaaaa
0aaaah
0aaaai
b11 aaaan
b10 aaaao
1aaaat
1aaaau

#2450000
0aaaaa

#2460000
1aaaaa
1aaaah
b100 aaaan
b100 aaaaq
0aaaau

#2470000
0aaaaa
b100000 aaaae

#2480000
1aaaaa
0aaaah
1aaaai
b1 aaaao
b11 aaaaq
b1 aaaar
0aaaat
1aaaau

#2490000
0aaaaa

#2500000
1aaaaa
0aaaai
b11 aaaan
b100 aaaaq
1aaaat

#2510000
0aaaaa

#2520000
1aaaaa
1aaaah
1aaaai
b100 aaaan
b11 aaaaq
b0 aaaar
0aaaat
0aaaau

#2530000
0aaaaa
b100001 aaaae

#2540000
1aaaaa
0aaaah
0aaaai
b11 aaaan
b0 aaaao
b1 aaaaq
1aaaat
1aaaau

#2550000
0aaaaa

#2560000
1aaaaa
1aaaah
b0 aaaan
0aaaau

#2570000
0aaaaa
b0 aaaae
1aaaaf

#2580000
1aaaaa
0aaaah

